COVID-19 Final Project
…
#Manupilating
pivoted_mobility<-pivoted_mobility%>%rename(STATE=NAME)
glimpse(pivoted_mobility)

## Rows: 8,996
## Columns: 3
## $ STATE  <chr> "Alabama", "Alabama", "Alabama", "Alabama", "Alabama", "Alabama~
## $ date   <chr> "X", "X2020.02.01", "X2020.02.02", "X2020.02.03", "X2020.02.04"~
## $ visits <dbl> 0, 183678, 173713, 199535, 188142, 176621, 170221, 200309, 1912~

#Joining the elections results df with mobility data for the analysis
mobi_elec<-pivoted_mobility%>%inner_join(Election1,by="STATE")
mobi_elec

## # A tibble: 8,650 x 6
##    STATE   date        visits State ELECTORAL.VOTES WINNER
##    <chr>   <chr>        <dbl> <chr>           <int> <chr> 
##  1 Alabama X                0 AL                  9 Trump 
##  2 Alabama X2020.02.01 183678 AL                  9 Trump 
##  3 Alabama X2020.02.02 173713 AL                  9 Trump 
##  4 Alabama X2020.02.03 199535 AL                  9 Trump 
##  5 Alabama X2020.02.04 188142 AL                  9 Trump 
##  6 Alabama X2020.02.05 176621 AL                  9 Trump 
##  7 Alabama X2020.02.06 170221 AL                  9 Trump 
##  8 Alabama X2020.02.07 200309 AL                  9 Trump 
##  9 Alabama X2020.02.08 191276 AL                  9 Trump 
## 10 Alabama X2020.02.09 186128 AL                  9 Trump 
## # ... with 8,640 more rows
…
